End point:https://reqres.in/api/users/2

Reuest Body:

{
    "name": "Sam",
    "job": "Devps",
			                  	+ ""
}

Response Body:

{
    "name": "Sam",
    "job": "Devps",
			                  	+ ""
}